{
  "project_info": {
    "project_number": "498813297412",
    "firebase_url": "https://rame-e027f.firebaseio.com",
    "project_id": "rame-e027f",
    "storage_bucket": "rame-e027f.appspot.com"
  },
  "client": [
    {
      "client_info": {
        "mobilesdk_app_id": "1:498813297412:android:1508d11688d47b9f94e651",
        "android_client_info": {
          "package_name": "com.example.group11lecture4"
        }
      },
      "oauth_client": [
        {
          "client_id": "498813297412-o3dqh6fa3vkcna4baop2ev8f7tu09prn.apps.googleusercontent.com",
          "client_type": 3
        }
      ],
      "api_key": [
        {
          "current_key": "AIzaSyC2fSsF5bo0JXYQOE0fmuEaM-3RGBy1a8M"
        }
      ],
      "services": {
        "appinvite_service": {
          "other_platform_oauth_client": [
            {
              "client_id": "498813297412-o3dqh6fa3vkcna4baop2ev8f7tu09prn.apps.googleusercontent.com",
              "client_type": 3
            }
          ]
        }
      }
    }
  ],
  "configuration_version": "1"
}